%YAML 1.1
%TAG !u! tag:unity3d.com,2011:
--- !u!29 &1
OcclusionCullingSettings:
  m_ObjectHideFlags: 0
  serializedVersion: 2
  m_OcclusionBakeSettings:
    smallestOccluder: 5
    smallestHole: 0.25
    backfaceThreshold: 100
  m_SceneGUID: 00000000000000000000000000000000
  m_OcclusionCullingData: {fileID: 0}
--- !u!104 &2
RenderSettings:
  m_ObjectHideFlags: 0
  serializedVersion: 9
  m_Fog: 0
  m_FogColor: {r: 0.5, g: 0.5, b: 0.5, a: 1}
  m_FogMode: 3
  m_FogDensity: 0.01
  m_LinearFogStart: 0
  m_LinearFogEnd: 300
  m_AmbientSkyColor: {r: 0.7735849, g: 0.6417836, b: 0.30286577, a: 1}
  m_AmbientEquatorColor: {r: 0.46226418, g: 0.44679582, b: 0.34233716, a: 1}
  m_AmbientGroundColor: {r: 0.6981132, g: 0.565157, b: 0.3523496, a: 1}
  m_AmbientIntensity: 1
  m_AmbientMode: 1
  m_SubtractiveShadowColor: {r: 0.42, g: 0.478, b: 0.627, a: 1}
  m_SkyboxMaterial: {fileID: 0}
  m_HaloStrength: 0.5
  m_FlareStrength: 1
  m_FlareFadeSpeed: 3
  m_HaloTexture: {fileID: 0}
  m_SpotCookie: {fileID: 10001, guid: 0000000000000000e000000000000000, type: 0}
  m_DefaultReflectionMode: 0
  m_DefaultReflectionResolution: 128
  m_ReflectionBounces: 1
  m_ReflectionIntensity: 1
  m_CustomReflection: {fileID: 0}
  m_Sun: {fileID: 705507994}
  m_IndirectSpecularColor: {r: 0, g: 0, b: 0, a: 1}
  m_UseRadianceAmbientProbe: 0
--- !u!157 &3
LightmapSettings:
  m_ObjectHideFlags: 0
  serializedVersion: 11
  m_GIWorkflowMode: 1
  m_GISettings:
    serializedVersion: 2
    m_BounceScale: 1
    m_IndirectOutputScale: 1
    m_AlbedoBoost: 1
    m_EnvironmentLightingMode: 0
    m_EnableBakedLightmaps: 1
    m_EnableRealtimeLightmaps: 1
  m_LightmapEditorSettings:
    serializedVersion: 12
    m_Resolution: 2
    m_BakeResolution: 40
    m_AtlasSize: 1024
    m_AO: 0
    m_AOMaxDistance: 1
    m_CompAOExponent: 1
    m_CompAOExponentDirect: 0
    m_ExtractAmbientOcclusion: 0
    m_Padding: 2
    m_LightmapParameters: {fileID: 0}
    m_LightmapsBakeMode: 1
    m_TextureCompression: 1
    m_FinalGather: 0
    m_FinalGatherFiltering: 1
    m_FinalGatherRayCount: 256
    m_ReflectionCompression: 2
    m_MixedBakeMode: 2
    m_BakeBackend: 1
    m_PVRSampling: 1
    m_PVRDirectSampleCount: 32
    m_PVRSampleCount: 500
    m_PVRBounces: 2
    m_PVREnvironmentSampleCount: 500
    m_PVREnvironmentReferencePointCount: 2048
    m_PVRFilteringMode: 2
    m_PVRDenoiserTypeDirect: 0
    m_PVRDenoiserTypeIndirect: 0
    m_PVRDenoiserTypeAO: 0
    m_PVRFilterTypeDirect: 0
    m_PVRFilterTypeIndirect: 0
    m_PVRFilterTypeAO: 0
    m_PVREnvironmentMIS: 0
    m_PVRCulling: 1
    m_PVRFilteringGaussRadiusDirect: 1
    m_PVRFilteringGaussRadiusIndirect: 5
    m_PVRFilteringGaussRadiusAO: 2
    m_PVRFilteringAtrousPositionSigmaDirect: 0.5
    m_PVRFilteringAtrousPositionSigmaIndirect: 2
    m_PVRFilteringAtrousPositionSigmaAO: 1
    m_ShowResolutionOverlay: 1
    m_ExportTrainingData: 0
  m_LightingDataAsset: {fileID: 0}
  m_UseShadowmask: 1
--- !u!196 &4
NavMeshSettings:
  serializedVersion: 2
  m_ObjectHideFlags: 0
  m_BuildSettings:
    serializedVersion: 2
    agentTypeID: 0
    agentRadius: 0.5
    agentHeight: 2
    agentSlope: 45
    agentClimb: 0.4
    ledgeDropHeight: 0
    maxJumpAcrossDistance: 0
    minRegionArea: 2
    manualCellSize: 0
    cellSize: 0.16666667
    manualTileSize: 0
    tileSize: 256
    accuratePlacement: 0
    debug:
      m_Flags: 0
  m_NavMeshData: {fileID: 0}
--- !u!1001 &188292929
PrefabInstance:
  m_ObjectHideFlags: 0
  serializedVersion: 2
  m_Modification:
    m_TransformParent: {fileID: 0}
    m_Modifications:
    - target: {fileID: 6391915517696706187, guid: 64292eb11e209f54eb4b955d5c93b15a,
        type: 3}
      propertyPath: m_Name
      value: Level 1
      objectReference: {fileID: 0}
    - target: {fileID: 6391915517696706184, guid: 64292eb11e209f54eb4b955d5c93b15a,
        type: 3}
      propertyPath: m_LocalPosition.x
      value: 11.9
      objectReference: {fileID: 0}
    - target: {fileID: 6391915517696706184, guid: 64292eb11e209f54eb4b955d5c93b15a,
        type: 3}
      propertyPath: m_LocalPosition.y
      value: 9.666385
      objectReference: {fileID: 0}
    - target: {fileID: 6391915517696706184, guid: 64292eb11e209f54eb4b955d5c93b15a,
        type: 3}
      propertyPath: m_LocalPosition.z
      value: -13.2
      objectReference: {fileID: 0}
    - target: {fileID: 6391915517696706184, guid: 64292eb11e209f54eb4b955d5c93b15a,
        type: 3}
      propertyPath: m_LocalRotation.x
      value: 0
      objectReference: {fileID: 0}
    - target: {fileID: 6391915517696706184, guid: 64292eb11e209f54eb4b955d5c93b15a,
        type: 3}
      propertyPath: m_LocalRotation.y
      value: 0
      objectReference: {fileID: 0}
    - target: {fileID: 6391915517696706184, guid: 64292eb11e209f54eb4b955d5c93b15a,
        type: 3}
      propertyPath: m_LocalRotation.z
      value: 0
      objectReference: {fileID: 0}
    - target: {fileID: 6391915517696706184, guid: 64292eb11e209f54eb4b955d5c93b15a,
        type: 3}
      propertyPath: m_LocalRotation.w
      value: 1
      objectReference: {fileID: 0}
    - target: {fileID: 6391915517696706184, guid: 64292eb11e209f54eb4b955d5c93b15a,
        type: 3}
      propertyPath: m_RootOrder
      value: 7
      objectReference: {fileID: 0}
    - target: {fileID: 6391915517696706184, guid: 64292eb11e209f54eb4b955d5c93b15a,
        type: 3}
      propertyPath: m_LocalEulerAnglesHint.x
      value: 0
      objectReference: {fileID: 0}
    - target: {fileID: 6391915517696706184, guid: 64292eb11e209f54eb4b955d5c93b15a,
        type: 3}
      propertyPath: m_LocalEulerAnglesHint.y
      value: 0
      objectReference: {fileID: 0}
    - target: {fileID: 6391915517696706184, guid: 64292eb11e209f54eb4b955d5c93b15a,
        type: 3}
      propertyPath: m_LocalEulerAnglesHint.z
      value: 0
      objectReference: {fileID: 0}
    m_RemovedComponents: []
  m_SourcePrefab: {fileID: 100100000, guid: 64292eb11e209f54eb4b955d5c93b15a, type: 3}
--- !u!1001 &287840068
PrefabInstance:
  m_ObjectHideFlags: 0
  serializedVersion: 2
  m_Modification:
    m_TransformParent: {fileID: 0}
    m_Modifications:
    - target: {fileID: 6064870614437919315, guid: d981e77ac7138ed40989e3cfa4f8daf1,
        type: 3}
      propertyPath: m_Name
      value: Sky
      objectReference: {fileID: 0}
    - target: {fileID: 6064870614437919312, guid: d981e77ac7138ed40989e3cfa4f8daf1,
        type: 3}
      propertyPath: m_LocalPosition.x
      value: 12.432854
      objectReference: {fileID: 0}
    - target: {fileID: 6064870614437919312, guid: d981e77ac7138ed40989e3cfa4f8daf1,
        type: 3}
      propertyPath: m_LocalPosition.y
      value: -0.22793385
      objectReference: {fileID: 0}
    - target: {fileID: 6064870614437919312, guid: d981e77ac7138ed40989e3cfa4f8daf1,
        type: 3}
      propertyPath: m_LocalPosition.z
      value: 16.832312
      objectReference: {fileID: 0}
    - target: {fileID: 6064870614437919312, guid: d981e77ac7138ed40989e3cfa4f8daf1,
        type: 3}
      propertyPath: m_LocalRotation.x
      value: 0
      objectReference: {fileID: 0}
    - target: {fileID: 6064870614437919312, guid: d981e77ac7138ed40989e3cfa4f8daf1,
        type: 3}
      propertyPath: m_LocalRotation.y
      value: 0
      objectReference: {fileID: 0}
    - target: {fileID: 6064870614437919312, guid: d981e77ac7138ed40989e3cfa4f8daf1,
        type: 3}
      propertyPath: m_LocalRotation.z
      value: 0
      objectReference: {fileID: 0}
    - target: {fileID: 6064870614437919312, guid: d981e77ac7138ed40989e3cfa4f8daf1,
        type: 3}
      propertyPath: m_LocalRotation.w
      value: 1
      objectReference: {fileID: 0}
    - target: {fileID: 6064870614437919312, guid: d981e77ac7138ed40989e3cfa4f8daf1,
        type: 3}
      propertyPath: m_RootOrder
      value: 5
      objectReference: {fileID: 0}
    - target: {fileID: 6064870614437919312, guid: d981e77ac7138ed40989e3cfa4f8daf1,
        type: 3}
      propertyPath: m_LocalEulerAnglesHint.x
      value: 0
      objectReference: {fileID: 0}
    - target: {fileID: 6064870614437919312, guid: d981e77ac7138ed40989e3cfa4f8daf1,
        type: 3}
      propertyPath: m_LocalEulerAnglesHint.y
      value: 0
      objectReference: {fileID: 0}
    - target: {fileID: 6064870614437919312, guid: d981e77ac7138ed40989e3cfa4f8daf1,
        type: 3}
      propertyPath: m_LocalEulerAnglesHint.z
      value: 0
      objectReference: {fileID: 0}
    m_RemovedComponents: []
  m_SourcePrefab: {fileID: 100100000, guid: d981e77ac7138ed40989e3cfa4f8daf1, type: 3}
--- !u!1001 &519861847
PrefabInstance:
  m_ObjectHideFlags: 0
  serializedVersion: 2
  m_Modification:
    m_TransformParent: {fileID: 0}
    m_Modifications:
    - target: {fileID: 7601119725314446182, guid: ada95ba824bf54948a8b5ad9b61fd01e,
        type: 3}
      propertyPath: m_Name
      value: Environments
      objectReference: {fileID: 0}
    - target: {fileID: 7601119725314446181, guid: ada95ba824bf54948a8b5ad9b61fd01e,
        type: 3}
      propertyPath: m_LocalPosition.x
      value: -4.8949375
      objectReference: {fileID: 0}
    - target: {fileID: 7601119725314446181, guid: ada95ba824bf54948a8b5ad9b61fd01e,
        type: 3}
      propertyPath: m_LocalPosition.y
      value: 5.9754667
      objectReference: {fileID: 0}
    - target: {fileID: 7601119725314446181, guid: ada95ba824bf54948a8b5ad9b61fd01e,
        type: 3}
      propertyPath: m_LocalPosition.z
      value: 16.744421
      objectReference: {fileID: 0}
    - target: {fileID: 7601119725314446181, guid: ada95ba824bf54948a8b5ad9b61fd01e,
        type: 3}
      propertyPath: m_LocalRotation.x
      value: 0
      objectReference: {fileID: 0}
    - target: {fileID: 7601119725314446181, guid: ada95ba824bf54948a8b5ad9b61fd01e,
        type: 3}
      propertyPath: m_LocalRotation.y
      value: 0
      objectReference: {fileID: 0}
    - target: {fileID: 7601119725314446181, guid: ada95ba824bf54948a8b5ad9b61fd01e,
        type: 3}
      propertyPath: m_LocalRotation.z
      value: 0
      objectReference: {fileID: 0}
    - target: {fileID: 7601119725314446181, guid: ada95ba824bf54948a8b5ad9b61fd01e,
        type: 3}
      propertyPath: m_LocalRotation.w
      value: 1
      objectReference: {fileID: 0}
    - target: {fileID: 7601119725314446181, guid: ada95ba824bf54948a8b5ad9b61fd01e,
        type: 3}
      propertyPath: m_RootOrder
      value: 6
      objectReference: {fileID: 0}
    - target: {fileID: 7601119725314446181, guid: ada95ba824bf54948a8b5ad9b61fd01e,
        type: 3}
      propertyPath: m_LocalEulerAnglesHint.x
      value: 0
      objectReference: {fileID: 0}
    - target: {fileID: 7601119725314446181, guid: ada95ba824bf54948a8b5ad9b61fd01e,
        type: 3}
      propertyPath: m_LocalEulerAnglesHint.y
      value: 0
      objectReference: {fileID: 0}
    - target: {fileID: 7601119725314446181, guid: ada95ba824bf54948a8b5ad9b61fd01e,
        type: 3}
      propertyPath: m_LocalEulerAnglesHint.z
      value: 0
      objectReference: {fileID: 0}
    m_RemovedComponents: []
  m_SourcePrefab: {fileID: 100100000, guid: ada95ba824bf54948a8b5ad9b61fd01e, type: 3}
--- !u!1 &705507993
GameObject:
  m_ObjectHideFlags: 0
  m_CorrespondingSourceObject: {fileID: 0}
  m_PrefabInstance: {fileID: 0}
  m_PrefabAsset: {fileID: 0}
  serializedVersion: 6
  m_Component:
  - component: {fileID: 705507995}
  - component: {fileID: 705507994}
  m_Layer: 0
  m_Name: Directional Light
  m_TagString: Untagged
  m_Icon: {fileID: 0}
  m_NavMeshLayer: 0
  m_StaticEditorFlags: 0
  m_IsActive: 1
--- !u!108 &705507994
Light:
  m_ObjectHideFlags: 0
  m_CorrespondingSourceObject: {fileID: 0}
  m_PrefabInstance: {fileID: 0}
  m_PrefabAsset: {fileID: 0}
  m_GameObject: {fileID: 705507993}
  m_Enabled: 1
  serializedVersion: 9
  m_Type: 1
  m_Color: {r: 1, g: 0.95686275, b: 0.8392157, a: 1}
  m_Intensity: 1
  m_Range: 10
  m_SpotAngle: 30
  m_InnerSpotAngle: 21.80208
  m_CookieSize: 10
  m_Shadows:
    m_Type: 0
    m_Resolution: -1
    m_CustomResolution: -1
    m_Strength: 1
    m_Bias: 0.149
    m_NormalBias: 0
    m_NearPlane: 0.2
    m_CullingMatrixOverride:
      e00: 1
      e01: 0
      e02: 0
      e03: 0
      e10: 0
      e11: 1
      e12: 0
      e13: 0
      e20: 0
      e21: 0
      e22: 1
      e23: 0
      e30: 0
      e31: 0
      e32: 0
      e33: 1
    m_UseCullingMatrixOverride: 0
  m_Cookie: {fileID: 0}
  m_DrawHalo: 0
  m_Flare: {fileID: 0}
  m_RenderMode: 0
  m_CullingMask:
    serializedVersion: 2
    m_Bits: 4294967295
  m_RenderingLayerMask: 1
  m_Lightmapping: 1
  m_LightShadowCasterMode: 0
  m_AreaSize: {x: 1, y: 1}
  m_BounceIntensity: 1
  m_ColorTemperature: 6570
  m_UseColorTemperature: 0
  m_BoundingSphereOverride: {x: 0, y: 0, z: 0, w: 0}
  m_UseBoundingSphereOverride: 0
  m_ShadowRadius: 0
  m_ShadowAngle: 0
--- !u!4 &705507995
Transform:
  m_ObjectHideFlags: 0
  m_CorrespondingSourceObject: {fileID: 0}
  m_PrefabInstance: {fileID: 0}
  m_PrefabAsset: {fileID: 0}
  m_GameObject: {fileID: 705507993}
  m_LocalRotation: {x: 0.40821788, y: -0.23456968, z: 0.10938163, w: 0.8754261}
  m_LocalPosition: {x: 0, y: 3, z: 0}
  m_LocalScale: {x: 1, y: 1, z: 1}
  m_Children: []
  m_Father: {fileID: 0}
  m_RootOrder: 0
  m_LocalEulerAnglesHint: {x: 50, y: -30, z: 0}
--- !u!1 &1420556372
GameObject:
  m_ObjectHideFlags: 0
  m_CorrespondingSourceObject: {fileID: 0}
  m_PrefabInstance: {fileID: 0}
  m_PrefabAsset: {fileID: 0}
  serializedVersion: 6
  m_Component:
  - component: {fileID: 1420556375}
  - component: {fileID: 1420556374}
  - component: {fileID: 1420556373}
  m_Layer: 0
  m_Name: EventSystem
  m_TagString: Untagged
  m_Icon: {fileID: 0}
  m_NavMeshLayer: 0
  m_StaticEditorFlags: 0
  m_IsActive: 1
--- !u!114 &1420556373
MonoBehaviour:
  m_ObjectHideFlags: 0
  m_CorrespondingSourceObject: {fileID: 0}
  m_PrefabInstance: {fileID: 0}
  m_PrefabAsset: {fileID: 0}
  m_GameObject: {fileID: 1420556372}
  m_Enabled: 1
  m_EditorHideFlags: 0
  m_Script: {fileID: 1077351063, guid: f70555f144d8491a825f0804e09c671c, type: 3}
  m_Name: 
  m_EditorClassIdentifier: 
  m_HorizontalAxis: Horizontal
  m_VerticalAxis: Vertical
  m_SubmitButton: Submit
  m_CancelButton: Cancel
  m_InputActionsPerSecond: 10
  m_RepeatDelay: 0.5
  m_ForceModuleActive: 0
--- !u!114 &1420556374
MonoBehaviour:
  m_ObjectHideFlags: 0
  m_CorrespondingSourceObject: {fileID: 0}
  m_PrefabInstance: {fileID: 0}
  m_PrefabAsset: {fileID: 0}
  m_GameObject: {fileID: 1420556372}
  m_Enabled: 1
  m_EditorHideFlags: 0
  m_Script: {fileID: -619905303, guid: f70555f144d8491a825f0804e09c671c, type: 3}
  m_Name: 
  m_EditorClassIdentifier: 
  m_FirstSelected: {fileID: 0}
  m_sendNavigationEvents: 1
  m_DragThreshold: 10
--- !u!4 &1420556375
Transform:
  m_ObjectHideFlags: 0
  m_CorrespondingSourceObject: {fileID: 0}
  m_PrefabInstance: {fileID: 0}
  m_PrefabAsset: {fileID: 0}
  m_GameObject: {fileID: 1420556372}
  m_LocalRotation: {x: 0, y: 0, z: 0, w: 1}
  m_LocalPosition: {x: 0, y: 0, z: 0}
  m_LocalScale: {x: 1, y: 1, z: 1}
  m_Children: []
  m_Father: {fileID: 0}
  m_RootOrder: 9
  m_LocalEulerAnglesHint: {x: 0, y: 0, z: 0}
--- !u!114 &1528679750 stripped
MonoBehaviour:
  m_CorrespondingSourceObject: {fileID: 5258391294077638161, guid: a9187ae2957739a41939f6e01a2f7243,
    type: 3}
  m_PrefabInstance: {fileID: 5258391295035759447}
  m_PrefabAsset: {fileID: 0}
  m_GameObject: {fileID: 0}
  m_Enabled: 1
  m_EditorHideFlags: 0
  m_Script: {fileID: 11500000, guid: 068bb316a1076ea49898732f163978ee, type: 3}
  m_Name: 
  m_EditorClassIdentifier: 
--- !u!4 &1530530092 stripped
Transform:
  m_CorrespondingSourceObject: {fileID: 3982950025822625042, guid: 53132d60031aa9d48966287197009abd,
    type: 3}
  m_PrefabInstance: {fileID: 5920314844505218578}
  m_PrefabAsset: {fileID: 0}
--- !u!1001 &1977459817
PrefabInstance:
  m_ObjectHideFlags: 0
  serializedVersion: 2
  m_Modification:
    m_TransformParent: {fileID: 0}
    m_Modifications:
    - target: {fileID: 5491343058905999122, guid: e22c83382d688e94c968de6bc88cbd1e,
        type: 3}
      propertyPath: m_Name
      value: Main Camera (1)
      objectReference: {fileID: 0}
    - target: {fileID: 5491343058905999127, guid: e22c83382d688e94c968de6bc88cbd1e,
        type: 3}
      propertyPath: m_LocalPosition.x
      value: -18.38
      objectReference: {fileID: 0}
    - target: {fileID: 5491343058905999127, guid: e22c83382d688e94c968de6bc88cbd1e,
        type: 3}
      propertyPath: m_LocalPosition.y
      value: 8.83
      objectReference: {fileID: 0}
    - target: {fileID: 5491343058905999127, guid: e22c83382d688e94c968de6bc88cbd1e,
        type: 3}
      propertyPath: m_LocalPosition.z
      value: -7.49
      objectReference: {fileID: 0}
    - target: {fileID: 5491343058905999127, guid: e22c83382d688e94c968de6bc88cbd1e,
        type: 3}
      propertyPath: m_LocalRotation.x
      value: 0.108983465
      objectReference: {fileID: 0}
    - target: {fileID: 5491343058905999127, guid: e22c83382d688e94c968de6bc88cbd1e,
        type: 3}
      propertyPath: m_LocalRotation.y
      value: 0.31215522
      objectReference: {fileID: 0}
    - target: {fileID: 5491343058905999127, guid: e22c83382d688e94c968de6bc88cbd1e,
        type: 3}
      propertyPath: m_LocalRotation.z
      value: -0.036073428
      objectReference: {fileID: 0}
    - target: {fileID: 5491343058905999127, guid: e22c83382d688e94c968de6bc88cbd1e,
        type: 3}
      propertyPath: m_LocalRotation.w
      value: 0.94306964
      objectReference: {fileID: 0}
    - target: {fileID: 5491343058905999127, guid: e22c83382d688e94c968de6bc88cbd1e,
        type: 3}
      propertyPath: m_RootOrder
      value: 1
      objectReference: {fileID: 0}
    - target: {fileID: 5491343058905999127, guid: e22c83382d688e94c968de6bc88cbd1e,
        type: 3}
      propertyPath: m_LocalEulerAnglesHint.x
      value: 13.184001
      objectReference: {fileID: 0}
    - target: {fileID: 5491343058905999127, guid: e22c83382d688e94c968de6bc88cbd1e,
        type: 3}
      propertyPath: m_LocalEulerAnglesHint.y
      value: 36.629
      objectReference: {fileID: 0}
    - target: {fileID: 5491343058905999127, guid: e22c83382d688e94c968de6bc88cbd1e,
        type: 3}
      propertyPath: m_LocalEulerAnglesHint.z
      value: 0
      objectReference: {fileID: 0}
    - target: {fileID: 5491343058905999126, guid: e22c83382d688e94c968de6bc88cbd1e,
        type: 3}
      propertyPath: target
      value: 
      objectReference: {fileID: 1530530092}
    m_RemovedComponents: []
  m_SourcePrefab: {fileID: 100100000, guid: e22c83382d688e94c968de6bc88cbd1e, type: 3}
--- !u!1001 &3105316183698564586
PrefabInstance:
  m_ObjectHideFlags: 0
  serializedVersion: 2
  m_Modification:
    m_TransformParent: {fileID: 0}
    m_Modifications:
    - target: {fileID: 3105316184308325623, guid: 28869956b8d5b01458c78df24122e483,
        type: 3}
      propertyPath: m_Name
      value: Canvas
      objectReference: {fileID: 0}
    - target: {fileID: 3105316184308325579, guid: 28869956b8d5b01458c78df24122e483,
        type: 3}
      propertyPath: m_LocalPosition.x
      value: 0
      objectReference: {fileID: 0}
    - target: {fileID: 3105316184308325579, guid: 28869956b8d5b01458c78df24122e483,
        type: 3}
      propertyPath: m_LocalPosition.y
      value: 0
      objectReference: {fileID: 0}
    - target: {fileID: 3105316184308325579, guid: 28869956b8d5b01458c78df24122e483,
        type: 3}
      propertyPath: m_LocalPosition.z
      value: 0
      objectReference: {fileID: 0}
    - target: {fileID: 3105316184308325579, guid: 28869956b8d5b01458c78df24122e483,
        type: 3}
      propertyPath: m_LocalRotation.x
      value: 0
      objectReference: {fileID: 0}
    - target: {fileID: 3105316184308325579, guid: 28869956b8d5b01458c78df24122e483,
        type: 3}
      propertyPath: m_LocalRotation.y
      value: 0
      objectReference: {fileID: 0}
    - target: {fileID: 3105316184308325579, guid: 28869956b8d5b01458c78df24122e483,
        type: 3}
      propertyPath: m_LocalRotation.z
      value: 0
      objectReference: {fileID: 0}
    - target: {fileID: 3105316184308325579, guid: 28869956b8d5b01458c78df24122e483,
        type: 3}
      propertyPath: m_LocalRotation.w
      value: 1
      objectReference: {fileID: 0}
    - target: {fileID: 3105316184308325579, guid: 28869956b8d5b01458c78df24122e483,
        type: 3}
      propertyPath: m_RootOrder
      value: 8
      objectReference: {fileID: 0}
    - target: {fileID: 3105316184308325579, guid: 28869956b8d5b01458c78df24122e483,
        type: 3}
      propertyPath: m_LocalEulerAnglesHint.x
      value: 0
      objectReference: {fileID: 0}
    - target: {fileID: 3105316184308325579, guid: 28869956b8d5b01458c78df24122e483,
        type: 3}
      propertyPath: m_LocalEulerAnglesHint.y
      value: 0
      objectReference: {fileID: 0}
    - target: {fileID: 3105316184308325579, guid: 28869956b8d5b01458c78df24122e483,
        type: 3}
      propertyPath: m_LocalEulerAnglesHint.z
      value: 0
      objectReference: {fileID: 0}
    - target: {fileID: 3105316184308325579, guid: 28869956b8d5b01458c78df24122e483,
        type: 3}
      propertyPath: m_AnchoredPosition.x
      value: 0
      objectReference: {fileID: 0}
    - target: {fileID: 3105316184308325579, guid: 28869956b8d5b01458c78df24122e483,
        type: 3}
      propertyPath: m_AnchoredPosition.y
      value: 0
      objectReference: {fileID: 0}
    - target: {fileID: 3105316184308325579, guid: 28869956b8d5b01458c78df24122e483,
        type: 3}
      propertyPath: m_SizeDelta.x
      value: 0
      objectReference: {fileID: 0}
    - target: {fileID: 3105316184308325579, guid: 28869956b8d5b01458c78df24122e483,
        type: 3}
      propertyPath: m_SizeDelta.y
      value: 0
      objectReference: {fileID: 0}
    - target: {fileID: 3105316184308325579, guid: 28869956b8d5b01458c78df24122e483,
        type: 3}
      propertyPath: m_AnchorMin.x
      value: 0
      objectReference: {fileID: 0}
    - target: {fileID: 3105316184308325579, guid: 28869956b8d5b01458c78df24122e483,
        type: 3}
      propertyPath: m_AnchorMin.y
      value: 0
      objectReference: {fileID: 0}
    - target: {fileID: 3105316184308325579, guid: 28869956b8d5b01458c78df24122e483,
        type: 3}
      propertyPath: m_AnchorMax.x
      value: 0
      objectReference: {fileID: 0}
    - target: {fileID: 3105316184308325579, guid: 28869956b8d5b01458c78df24122e483,
        type: 3}
      propertyPath: m_AnchorMax.y
      value: 0
      objectReference: {fileID: 0}
    - target: {fileID: 3105316184308325579, guid: 28869956b8d5b01458c78df24122e483,
        type: 3}
      propertyPath: m_Pivot.x
      value: 0
      objectReference: {fileID: 0}
    - target: {fileID: 3105316184308325579, guid: 28869956b8d5b01458c78df24122e483,
        type: 3}
      propertyPath: m_Pivot.y
      value: 0
      objectReference: {fileID: 0}
    - target: {fileID: 3587390683946202484, guid: 28869956b8d5b01458c78df24122e483,
        type: 3}
      propertyPath: m_SizeDelta.x
      value: 0
      objectReference: {fileID: 0}
    - target: {fileID: 3587390683946202484, guid: 28869956b8d5b01458c78df24122e483,
        type: 3}
      propertyPath: m_AnchorMin.y
      value: 1
      objectReference: {fileID: 0}
    - target: {fileID: 3587390683946202484, guid: 28869956b8d5b01458c78df24122e483,
        type: 3}
      propertyPath: m_AnchorMax.y
      value: 1
      objectReference: {fileID: 0}
    - target: {fileID: 3587390683946202484, guid: 28869956b8d5b01458c78df24122e483,
        type: 3}
      propertyPath: m_SizeDelta.y
      value: 71
      objectReference: {fileID: 0}
    - target: {fileID: 3587390683946202484, guid: 28869956b8d5b01458c78df24122e483,
        type: 3}
      propertyPath: m_AnchoredPosition.y
      value: -35.5
      objectReference: {fileID: 0}
    - target: {fileID: 3105316183098766536, guid: 28869956b8d5b01458c78df24122e483,
        type: 3}
      propertyPath: m_SizeDelta.x
      value: 0
      objectReference: {fileID: 0}
    - target: {fileID: 3105316183098766536, guid: 28869956b8d5b01458c78df24122e483,
        type: 3}
      propertyPath: m_AnchorMin.y
      value: 1
      objectReference: {fileID: 0}
    - target: {fileID: 3105316183098766536, guid: 28869956b8d5b01458c78df24122e483,
        type: 3}
      propertyPath: m_AnchorMax.y
      value: 1
      objectReference: {fileID: 0}
    - target: {fileID: 3105316183098766536, guid: 28869956b8d5b01458c78df24122e483,
        type: 3}
      propertyPath: m_SizeDelta.y
      value: 71
      objectReference: {fileID: 0}
    - target: {fileID: 3105316183098766536, guid: 28869956b8d5b01458c78df24122e483,
        type: 3}
      propertyPath: m_AnchoredPosition.y
      value: -35.5
      objectReference: {fileID: 0}
    m_RemovedComponents: []
  m_SourcePrefab: {fileID: 100100000, guid: 28869956b8d5b01458c78df24122e483, type: 3}
--- !u!1001 &5258391295035759447
PrefabInstance:
  m_ObjectHideFlags: 0
  serializedVersion: 2
  m_Modification:
    m_TransformParent: {fileID: 0}
    m_Modifications:
    - target: {fileID: 5258391294077638165, guid: a9187ae2957739a41939f6e01a2f7243,
        type: 3}
      propertyPath: m_Name
      value: Player
      objectReference: {fileID: 0}
    - target: {fileID: 5258391294077638164, guid: a9187ae2957739a41939f6e01a2f7243,
        type: 3}
      propertyPath: m_LocalPosition.x
      value: 2.1100001
      objectReference: {fileID: 0}
    - target: {fileID: 5258391294077638164, guid: a9187ae2957739a41939f6e01a2f7243,
        type: 3}
      propertyPath: m_LocalPosition.y
      value: 0.6274533
      objectReference: {fileID: 0}
    - target: {fileID: 5258391294077638164, guid: a9187ae2957739a41939f6e01a2f7243,
        type: 3}
      propertyPath: m_LocalPosition.z
      value: -1.1121094
      objectReference: {fileID: 0}
    - target: {fileID: 5258391294077638164, guid: a9187ae2957739a41939f6e01a2f7243,
        type: 3}
      propertyPath: m_LocalRotation.x
      value: 0
      objectReference: {fileID: 0}
    - target: {fileID: 5258391294077638164, guid: a9187ae2957739a41939f6e01a2f7243,
        type: 3}
      propertyPath: m_LocalRotation.y
      value: 0.7071068
      objectReference: {fileID: 0}
    - target: {fileID: 5258391294077638164, guid: a9187ae2957739a41939f6e01a2f7243,
        type: 3}
      propertyPath: m_LocalRotation.z
      value: 0
      objectReference: {fileID: 0}
    - target: {fileID: 5258391294077638164, guid: a9187ae2957739a41939f6e01a2f7243,
        type: 3}
      propertyPath: m_LocalRotation.w
      value: 0.7071068
      objectReference: {fileID: 0}
    - target: {fileID: 5258391294077638164, guid: a9187ae2957739a41939f6e01a2f7243,
        type: 3}
      propertyPath: m_RootOrder
      value: 3
      objectReference: {fileID: 0}
    - target: {fileID: 5258391294077638164, guid: a9187ae2957739a41939f6e01a2f7243,
        type: 3}
      propertyPath: m_LocalEulerAnglesHint.x
      value: 0
      objectReference: {fileID: 0}
    - target: {fileID: 5258391294077638164, guid: a9187ae2957739a41939f6e01a2f7243,
        type: 3}
      propertyPath: m_LocalEulerAnglesHint.y
      value: 90
      objectReference: {fileID: 0}
    - target: {fileID: 5258391294077638164, guid: a9187ae2957739a41939f6e01a2f7243,
        type: 3}
      propertyPath: m_LocalEulerAnglesHint.z
      value: 0
      objectReference: {fileID: 0}
    m_RemovedComponents: []
  m_SourcePrefab: {fileID: 100100000, guid: a9187ae2957739a41939f6e01a2f7243, type: 3}
--- !u!1001 &5920314844505218578
PrefabInstance:
  m_ObjectHideFlags: 0
  serializedVersion: 2
  m_Modification:
    m_TransformParent: {fileID: 0}
    m_Modifications:
    - target: {fileID: 3982950025822847282, guid: 53132d60031aa9d48966287197009abd,
        type: 3}
      propertyPath: m_Name
      value: Horse
      objectReference: {fileID: 0}
    - target: {fileID: 3982950025822625042, guid: 53132d60031aa9d48966287197009abd,
        type: 3}
      propertyPath: m_LocalPosition.x
      value: 7.81
      objectReference: {fileID: 0}
    - target: {fileID: 3982950025822625042, guid: 53132d60031aa9d48966287197009abd,
        type: 3}
      propertyPath: m_LocalPosition.y
      value: -0.33
      objectReference: {fileID: 0}
    - target: {fileID: 3982950025822625042, guid: 53132d60031aa9d48966287197009abd,
        type: 3}
      propertyPath: m_LocalPosition.z
      value: -1.1121094
      objectReference: {fileID: 0}
    - target: {fileID: 3982950025822625042, guid: 53132d60031aa9d48966287197009abd,
        type: 3}
      propertyPath: m_LocalRotation.x
      value: 0
      objectReference: {fileID: 0}
    - target: {fileID: 3982950025822625042, guid: 53132d60031aa9d48966287197009abd,
        type: 3}
      propertyPath: m_LocalRotation.y
      value: 0.7071068
      objectReference: {fileID: 0}
    - target: {fileID: 3982950025822625042, guid: 53132d60031aa9d48966287197009abd,
        type: 3}
      propertyPath: m_LocalRotation.z
      value: 0
      objectReference: {fileID: 0}
    - target: {fileID: 3982950025822625042, guid: 53132d60031aa9d48966287197009abd,
        type: 3}
      propertyPath: m_LocalRotation.w
      value: 0.7071068
      objectReference: {fileID: 0}
    - target: {fileID: 3982950025822625042, guid: 53132d60031aa9d48966287197009abd,
        type: 3}
      propertyPath: m_RootOrder
      value: 4
      objectReference: {fileID: 0}
    - target: {fileID: 3982950025822625042, guid: 53132d60031aa9d48966287197009abd,
        type: 3}
      propertyPath: m_LocalEulerAnglesHint.x
      value: 0
      objectReference: {fileID: 0}
    - target: {fileID: 3982950025822625042, guid: 53132d60031aa9d48966287197009abd,
        type: 3}
      propertyPath: m_LocalEulerAnglesHint.y
      value: 90
      objectReference: {fileID: 0}
    - target: {fileID: 3982950025822625042, guid: 53132d60031aa9d48966287197009abd,
        type: 3}
      propertyPath: m_LocalEulerAnglesHint.z
      value: 0
      objectReference: {fileID: 0}
    - target: {fileID: 3982950026129510682, guid: 53132d60031aa9d48966287197009abd,
        type: 3}
      propertyPath: playerController
      value: 
      objectReference: {fileID: 1528679750}
    m_RemovedComponents: []
  m_SourcePrefab: {fileID: 100100000, guid: 53132d60031aa9d48966287197009abd, type: 3}
--- !u!1001 &8211240538434950361
PrefabInstance:
  m_ObjectHideFlags: 0
  serializedVersion: 2
  m_Modification:
    m_TransformParent: {fileID: 0}
    m_Modifications:
    - target: {fileID: 8211240538364141212, guid: 1e009ae956e864346b67fe392d9263a3,
        type: 3}
      propertyPath: m_Name
      value: LevelManager
      objectReference: {fileID: 0}
    - target: {fileID: 8211240538364141214, guid: 1e009ae956e864346b67fe392d9263a3,
        type: 3}
      propertyPath: playerController
      value: 
      objectReference: {fileID: 1528679750}
    - target: {fileID: 8211240538364141214, guid: 1e009ae956e864346b67fe392d9263a3,
        type: 3}
      propertyPath: flipCountSerebro.needForWin
      value: 0
      objectReference: {fileID: 0}
    - target: {fileID: 8211240538364141214, guid: 1e009ae956e864346b67fe392d9263a3,
        type: 3}
      propertyPath: flipCountBronze.needForWin
      value: 1
      objectReference: {fileID: 0}
    - target: {fileID: 8211240538364141214, guid: 1e009ae956e864346b67fe392d9263a3,
        type: 3}
      propertyPath: flipCountGold.needForWin
      value: 0
      objectReference: {fileID: 0}
    - target: {fileID: 8211240538364141214, guid: 1e009ae956e864346b67fe392d9263a3,
        type: 3}
      propertyPath: flipCountSerebro.flipCount
      value: 0
      objectReference: {fileID: 0}
    - target: {fileID: 8211240538364141214, guid: 1e009ae956e864346b67fe392d9263a3,
        type: 3}
      propertyPath: flipCountGold.flipCount
      value: 0
      objectReference: {fileID: 0}
    - target: {fileID: 8211240538364141215, guid: 1e009ae956e864346b67fe392d9263a3,
        type: 3}
      propertyPath: m_LocalPosition.x
      value: -4.72
      objectReference: {fileID: 0}
    - target: {fileID: 8211240538364141215, guid: 1e009ae956e864346b67fe392d9263a3,
        type: 3}
      propertyPath: m_LocalPosition.y
      value: 7.689453
      objectReference: {fileID: 0}
    - target: {fileID: 8211240538364141215, guid: 1e009ae956e864346b67fe392d9263a3,
        type: 3}
      propertyPath: m_LocalPosition.z
      value: -3.1621094
      objectReference: {fileID: 0}
    - target: {fileID: 8211240538364141215, guid: 1e009ae956e864346b67fe392d9263a3,
        type: 3}
      propertyPath: m_LocalRotation.x
      value: 0
      objectReference: {fileID: 0}
    - target: {fileID: 8211240538364141215, guid: 1e009ae956e864346b67fe392d9263a3,
        type: 3}
      propertyPath: m_LocalRotation.y
      value: 0
      objectReference: {fileID: 0}
    - target: {fileID: 8211240538364141215, guid: 1e009ae956e864346b67fe392d9263a3,
        type: 3}
      propertyPath: m_LocalRotation.z
      value: 0
      objectReference: {fileID: 0}
    - target: {fileID: 8211240538364141215, guid: 1e009ae956e864346b67fe392d9263a3,
        type: 3}
      propertyPath: m_LocalRotation.w
      value: 1
      objectReference: {fileID: 0}
    - target: {fileID: 8211240538364141215, guid: 1e009ae956e864346b67fe392d9263a3,
        type: 3}
      propertyPath: m_RootOrder
      value: 2
      objectReference: {fileID: 0}
    - target: {fileID: 8211240538364141215, guid: 1e009ae956e864346b67fe392d9263a3,
        type: 3}
      propertyPath: m_LocalEulerAnglesHint.x
      value: 0
      objectReference: {fileID: 0}
    - target: {fileID: 8211240538364141215, guid: 1e009ae956e864346b67fe392d9263a3,
        type: 3}
      propertyPath: m_LocalEulerAnglesHint.y
      value: 0
      objectReference: {fileID: 0}
    - target: {fileID: 8211240538364141215, guid: 1e009ae956e864346b67fe392d9263a3,
        type: 3}
      propertyPath: m_LocalEulerAnglesHint.z
      value: 0
      objectReference: {fileID: 0}
    m_RemovedComponents: []
  m_SourcePrefab: {fileID: 100100000, guid: 1e009ae956e864346b67fe392d9263a3, type: 3}
